{
	"info": {
		"_postman_id": "0cd240c1-2772-48ac-889b-f5bba9632523",
		"name": "ProiectJavaWeb",
		"schema": "https://schema.getpostman.com/json/collection/v2.1.0/collection.json"
	},
	"item": [
		{
			"name": "carManufacturer",
			"request": {
				"method": "POST",
				"header": [],
				"body": {
					"mode": "raw",
					"raw": "{\n    \"manufacturerName\": \"Mazda\",\n    \"cars\": [\n        {\n            \"model\": \"6\",\n            \"year\": 2020,\n            \"engineCapacity\": 2500\n        }\n    ]\n}",
					"options": {
						"raw": {
							"language": "json"
						}
					}
				},
				"url": {
					"raw": "http://localhost:8080/api/carManufacturer",
					"protocol": "http",
					"host": [
						"localhost"
					],
					"port": "8080",
					"path": [
						"api",
						"carManufacturer"
					]
				}
			},
			"response": []
		},
		{
			"name": "updateManufacturer/1",
			"request": {
				"method": "PUT",
				"header": [],
				"body": {
					"mode": "raw",
					"raw": "[\n    {\n        \"model\": \"6\",\n        \"year\": 2020,\n        \"engineCapacity\": 2500\n    },\n    {\n        \"model\": \"CX5\",\n        \"year\": 2019,\n        \"engineCapacity\": 1998\n    }\n]\n",
					"options": {
						"raw": {
							"language": "json"
						}
					}
				},
				"url": {
					"raw": "http://localhost:8080/api/updateManufacturer/1",
					"protocol": "http",
					"host": [
						"localhost"
					],
					"port": "8080",
					"path": [
						"api",
						"updateManufacturer",
						"1"
					]
				}
			},
			"response": []
		},
		{
			"name": "getCarManufacturer/mazda",
			"request": {
				"method": "GET",
				"header": [
					{
						"key": "Content-Type",
						"value": "application/json",
						"type": "default"
					}
				],
				"url": {
					"raw": "http://localhost:8080/api/getCarManufacturer/mazda",
					"protocol": "http",
					"host": [
						"localhost"
					],
					"port": "8080",
					"path": [
						"api",
						"getCarManufacturer",
						"mazda"
					]
				}
			},
			"response": []
		},
		{
			"name": "getAllManufacturers",
			"request": {
				"method": "GET",
				"header": [],
				"url": {
					"raw": "http://localhost:8080/api/getAllManufacturers",
					"protocol": "http",
					"host": [
						"localhost"
					],
					"port": "8080",
					"path": [
						"api",
						"getAllManufacturers"
					]
				}
			},
			"response": []
		},
		{
			"name": "addCar/1",
			"request": {
				"method": "POST",
				"header": [],
				"body": {
					"mode": "raw",
					"raw": "{\n    \"model\": \"2\",\n    \"year\": 2018,\n    \"engineCapacity\": 1500\n}",
					"options": {
						"raw": {
							"language": "json"
						}
					}
				},
				"url": {
					"raw": "http://localhost:8080/api/addCar/1",
					"protocol": "http",
					"host": [
						"localhost"
					],
					"port": "8080",
					"path": [
						"api",
						"addCar",
						"1"
					]
				}
			},
			"response": []
		},
		{
			"name": "api/updateCar",
			"request": {
				"method": "PUT",
				"header": [],
				"body": {
					"mode": "raw",
					"raw": "{\n    \"id\": 3,\n    \"model\": \"2\",\n    \"year\": 2016,\n    \"engineCapacity\": 1500\n}",
					"options": {
						"raw": {
							"language": "json"
						}
					}
				},
				"url": {
					"raw": "http://localhost:8080/api/updateCar",
					"protocol": "http",
					"host": [
						"localhost"
					],
					"port": "8080",
					"path": [
						"api",
						"updateCar"
					]
				}
			},
			"response": []
		},
		{
			"name": "updateCar/2",
			"request": {
				"method": "PUT",
				"header": [],
				"body": {
					"mode": "raw",
					"raw": "{\n    \"id\": 3,\n    \"model\": \"Duster\",\n    \"year\": 2016,\n    \"engineCapacity\": 1500\n}",
					"options": {
						"raw": {
							"language": "json"
						}
					}
				},
				"url": {
					"raw": "http://localhost:8080/api/updateCar/2",
					"protocol": "http",
					"host": [
						"localhost"
					],
					"port": "8080",
					"path": [
						"api",
						"updateCar",
						"2"
					]
				}
			},
			"response": []
		},
		{
			"name": "getAllCars",
			"request": {
				"method": "GET",
				"header": [],
				"url": {
					"raw": "http://localhost:8080/api/getAllCars",
					"protocol": "http",
					"host": [
						"localhost"
					],
					"port": "8080",
					"path": [
						"api",
						"getAllCars"
					]
				}
			},
			"response": []
		},
		{
			"name": "getCars",
			"protocolProfileBehavior": {
				"disableBodyPruning": true
			},
			"request": {
				"method": "GET",
				"header": [],
				"body": {
					"mode": "formdata",
					"formdata": [
						{
							"key": "manufacturer",
							"value": "",
							"type": "default"
						},
						{
							"key": "model",
							"value": "",
							"type": "default"
						},
						{
							"key": "year",
							"value": "",
							"type": "default"
						},
						{
							"key": "engineCapacity",
							"value": "",
							"type": "default"
						}
					]
				},
				"url": {
					"raw": "http://localhost:8080/api/getCars",
					"protocol": "http",
					"host": [
						"localhost"
					],
					"port": "8080",
					"path": [
						"api",
						"getCars"
					]
				}
			},
			"response": []
		},
		{
			"name": "partManufacturer",
			"request": {
				"method": "POST",
				"header": [],
				"body": {
					"mode": "raw",
					"raw": "{\n    \"name\": \"Mazda\",\n    \"parts\": [\n        {\n            \"name\": \"far\"\n        },\n        {\n            \"name\": \"bujie\"\n        }\n    ]\n}",
					"options": {
						"raw": {
							"language": "json"
						}
					}
				},
				"url": {
					"raw": "http://localhost:8080/api/partManufacturer",
					"protocol": "http",
					"host": [
						"localhost"
					],
					"port": "8080",
					"path": [
						"api",
						"partManufacturer"
					]
				}
			},
			"response": []
		},
		{
			"name": "getAllPartManufacturers",
			"request": {
				"method": "GET",
				"header": [],
				"url": {
					"raw": "http://localhost:8080/api/getAllPartManufacturers",
					"protocol": "http",
					"host": [
						"localhost"
					],
					"port": "8080",
					"path": [
						"api",
						"getAllPartManufacturers"
					]
				}
			},
			"response": []
		},
		{
			"name": "addCarPart/1",
			"request": {
				"method": "POST",
				"header": [],
				"body": {
					"mode": "raw",
					"raw": "{\n    \"name\": \"bara spate\"\n}",
					"options": {
						"raw": {
							"language": "json"
						}
					}
				},
				"url": {
					"raw": "http://localhost:8080/api/addCarPart/1",
					"protocol": "http",
					"host": [
						"localhost"
					],
					"port": "8080",
					"path": [
						"api",
						"addCarPart",
						"1"
					]
				}
			},
			"response": []
		},
		{
			"name": "updateCarPart",
			"request": {
				"method": "PUT",
				"header": [],
				"body": {
					"mode": "raw",
					"raw": "{\n    \"id\": 5,\n    \"name\": \"plafon\"\n}",
					"options": {
						"raw": {
							"language": "json"
						}
					}
				},
				"url": {
					"raw": "http://localhost:8080/api/updateCarPart",
					"protocol": "http",
					"host": [
						"localhost"
					],
					"port": "8080",
					"path": [
						"api",
						"updateCarPart"
					]
				}
			},
			"response": []
		},
		{
			"name": "addCompatibleCar/3/4",
			"request": {
				"method": "POST",
				"header": [],
				"url": {
					"raw": "http://localhost:8080/api/addCompatibleCar/3/4",
					"protocol": "http",
					"host": [
						"localhost"
					],
					"port": "8080",
					"path": [
						"api",
						"addCompatibleCar",
						"3",
						"4"
					]
				}
			},
			"response": []
		},
		{
			"name": "getParts",
			"protocolProfileBehavior": {
				"disableBodyPruning": true
			},
			"request": {
				"method": "GET",
				"header": [],
				"body": {
					"mode": "formdata",
					"formdata": [
						{
							"key": "partManufacturer",
							"value": "",
							"type": "default"
						},
						{
							"key": "partName",
							"value": "",
							"type": "default"
						},
						{
							"key": "carManufacturer",
							"value": "",
							"type": "default"
						},
						{
							"key": "carModel",
							"value": "",
							"type": "default"
						}
					]
				},
				"url": {
					"raw": "http://localhost:8080/api/getParts",
					"protocol": "http",
					"host": [
						"localhost"
					],
					"port": "8080",
					"path": [
						"api",
						"getParts"
					]
				}
			},
			"response": []
		},
		{
			"name": "addCarToClient/3/1",
			"request": {
				"method": "POST",
				"header": [],
				"url": {
					"raw": "http://localhost:8080/api/addCarToClient/3/1",
					"protocol": "http",
					"host": [
						"localhost"
					],
					"port": "8080",
					"path": [
						"api",
						"addCarToClient",
						"3",
						"1"
					]
				}
			},
			"response": []
		},
		{
			"name": "createClient",
			"request": {
				"method": "POST",
				"header": [],
				"body": {
					"mode": "raw",
					"raw": "{\n    \"firstName\": \"Doru\",\n    \"lastName\": \"Mancila\",\n    \"address\": \"Bucuresti\"\n}",
					"options": {
						"raw": {
							"language": "json"
						}
					}
				},
				"url": {
					"raw": "http://localhost:8080/api/createClient",
					"protocol": "http",
					"host": [
						"localhost"
					],
					"port": "8080",
					"path": [
						"api",
						"createClient"
					]
				}
			},
			"response": []
		},
		{
			"name": "updatePartManufacturer/1",
			"request": {
				"method": "PUT",
				"header": [],
				"body": {
					"mode": "raw",
					"raw": "[\n    {\n        \"name\": \"bara fata\"\n    },\n    {\n        \"name\": \"bujie\"\n    }\n]\n",
					"options": {
						"raw": {
							"language": "json"
						}
					}
				},
				"url": {
					"raw": "http://localhost:8080/api/updatePartManufacturer/1",
					"protocol": "http",
					"host": [
						"localhost"
					],
					"port": "8080",
					"path": [
						"api",
						"updatePartManufacturer",
						"1"
					]
				}
			},
			"response": []
		},
		{
			"name": "createNewOrder/1",
			"request": {
				"method": "POST",
				"header": [],
				"url": {
					"raw": "http://localhost:8080/api/createNewOrder/1",
					"protocol": "http",
					"host": [
						"localhost"
					],
					"port": "8080",
					"path": [
						"api",
						"createNewOrder",
						"1"
					]
				}
			},
			"response": []
		},
		{
			"name": "addPartsToOrder/1/1",
			"request": {
				"method": "PUT",
				"header": [],
				"url": {
					"raw": "http://localhost:8080/api/addPartsToOrder/1/1",
					"protocol": "http",
					"host": [
						"localhost"
					],
					"port": "8080",
					"path": [
						"api",
						"addPartsToOrder",
						"1",
						"1"
					]
				}
			},
			"response": []
		},
		{
			"name": "deletePartFromOrder/1/1",
			"request": {
				"method": "PUT",
				"header": [],
				"url": {
					"raw": "http://localhost:8080/api/deletePartFromOrder/1/1",
					"protocol": "http",
					"host": [
						"localhost"
					],
					"port": "8080",
					"path": [
						"api",
						"deletePartFromOrder",
						"1",
						"1"
					]
				}
			},
			"response": []
		},
		{
			"name": "deleteOrder/1",
			"request": {
				"method": "DELETE",
				"header": [],
				"url": {
					"raw": "http://localhost:8080/api/deleteOrder/1",
					"protocol": "http",
					"host": [
						"localhost"
					],
					"port": "8080",
					"path": [
						"api",
						"deleteOrder",
						"1"
					]
				}
			},
			"response": []
		}
	]
}